[
    {
      "state": "Alabama",
      "population": 4162200,
      "uninsured": 10.8,
      "hospitals": 101,
      "centers": 10,
      "low_income": 44.6,
      "description": "Alabamians identified access to care as the second greatest current health concern in Alabama. Healthy People 2030 describes access to care as “the timely use of personal health services to achieve the best possible health outcomes” (Healthy People 2030). Addressing access to healthcare services improves prevention of disease and reduces disability due to disease by allowing early detection and treatment of health conditions. Rural AL is the primary geographic location at risk for this outcome, and rurality is addressed under various health measures throughout SHA.",
      "image": "https://www.southernliving.com/thmb/7TrdADPHlKXZpcXG2Ptx44uVaOU=/1500x0/filters:no_upscale():max_bytes(150000):strip_icc()/birmingham--alabama--usa-cityscape-929679616-25f999a0e55b42d9bcee68f3deed4c98.jpg",
      "health_centers": [
        {
          "name": "Alabama Regional Medical Services",
          "href": "/organizations/1"
        },
        {
          "name": "Cahaba Medical Care",
          "href": "/organizations/2"
        }
      ],
      "hospitals_list": [
        {
          "name": "UAB Hospital",
          "href": "/hospitals/1"
        },
        {
          "name": "Children's of Alabama",
          "href": "/hospitals/2"
        }
      ]
    },
    {
      "state": "Alaska",
      "population": 635300,
      "uninsured": 12.0,
      "hospitals": 21,
      "centers": 1,
      "low_income": 26.4,
      "description": "Alaska was among the first states to implement a reinsurance program, which took effect in 2018. This has helped to keep unsubsidized premiums in the state’s individual market significantly lower than they would otherwise have been,1 Since 2004, Alaska has required fully-insured health plans (i.e. plans that aren’t self-insured) to cover out-of-network care under the state’s 80th percentile rule. But as of 2023, Alaska’s Division of Insurance is considering repealing the 80th Percentile Rule.2 There are concerns that it may have driven healthcare prices higher than they would otherwise be, and officials note that it might not be needed anymore, due to the federal No Surprises Act.",
      "image": "https://www.civitatis.com/blog/wp-content/uploads/2021/06/ballena-alaska-portada.jpg",
      "health_centers": [
        {
          "name": "Alaska Native Medical Center",
          "href": "/organizations/3"
        }
      ],
      "hospitals_list": [
        {
          "name": "Providence Alaska Medical Center",
          "href": "/hospitals/1"
        }
      ]
    },
    {
      "state": "Arizona",
      "population": 5976200,
      "uninsured": 12.9,
      "hospitals": 83,
      "centers": 9,
      "low_income": 28.0,
      "description": "Arizona is ranked 32nd in the country for overall health – a slight decline from its ranking of 31 in 20191 – according to America’s Health Rankings 2022 Annual Report.",
      "image": "https://a.cdn-hotels.com/gdcs/production1/d1604/858db901-006d-4884-8493-6cc38aff0729.jpg?impolicy=fcrop&w=800&h=533&q=medium",
      "health_centers": [
        {
          "name": "Mountain Park Health Center",
          "href": "/organizations/1"
        },
        {
          "name": "El Rio Community Health Center",
          "href": "/organizations/3"
        }
      ],
      "hospitals_list": [
        {
          "name": "Mayo Clinic Hospital",
          "href": "/hospitals/1"
        },
        {
          "name": "Banner University Medical Center",
          "href": "/hospitals/2"
        }
      ]
    }
  ]